"organism";"lever";"echelle";"biblio";"expert";"p.valueStats";"estimateStats";"sensBiblio";"sensExpert";"sensStats";"nbApproch";"sensApproch";"whichApproch"
"1";"rouilleJaune";"bois";"200";-0.285714285714286;0.133333333333333;0.602816539897347;3.49778459768941e-06;"-";"+";"0";0;NA;"Aucune"
"2";"rouilleJaune";"bois";"1000";0;0;0.671364373512865;1.37633030594241e-07;"0";"0";"0";3;"0";"Toutes"
"3";"rouilleJaune";"bois";"5000";0;0;0.317060175527432;-2.37877192630113e-08;"0";"0";"0";3;"0";"Toutes"
"4";"rouilleJaune";"bois";"10000";0;0;0.680158579087451;2.36209824397785e-09;"0";"0";"0";3;"0";"Toutes"
"5";"rouilleJaune";"haies";"200";-0.285714285714286;0.0833333333333333;0.0729389922435546;-0.000123468440456445;"-";"+";"0";0;NA;"Aucune"
"6";"rouilleJaune";"haies";"1000";0;0;2.98606688115795e-06;2.15626824529953e-05;"0";"0";"+";2;"0";"Bibliographie et Experts"
"7";"rouilleJaune";"haies";"5000";0;0;0.000140083418672499;-1.68715989983401e-06;"0";"0";"-";2;"0";"Bibliographie et Experts"
"8";"rouilleJaune";"haies";"10000";0;0;0.0798230030898042;1.64335813566646e-07;"0";"0";"0";3;"0";"Toutes"
"9";"rouilleJaune";"prairies";"200";0.785714285714286;0;0.999724172637466;-1.95423646772808e-09;"+";"0";"0";2;"0";"Statistiques et Experts"
"10";"rouilleJaune";"prairies";"1000";0.357142857142857;0;0.16534580456373;5.75912586378516e-07;"+";"0";"0";2;"0";"Statistiques et Experts"
"11";"rouilleJaune";"prairies";"5000";0;0;0.00357415759309223;-1.15134922610266e-07;"0";"0";"-";2;"0";"Bibliographie et Experts"
"12";"rouilleJaune";"prairies";"10000";0;0;0.000390860776183298;3.19498615163343e-08;"0";"0";"+";2;"0";"Bibliographie et Experts"
"13";"rouilleJaune";"Prec";"200";1.92857142857143;0.545454545454545;0.428097518533758;-2.19570861452093e-06;"+";"+";"0";2;"+";"Bibliographie et Experts"
"14";"rouilleJaune";"Prec";"1000";1.71428571428571;0.548821548821549;0.51467799794621;1.80449967981324e-07;"+";"+";"0";2;"+";"Bibliographie et Experts"
"15";"rouilleJaune";"Prec";"5000";1.21428571428571;0.220779220779221;0.345676456923205;-5.13696291233931e-08;"+";"+";"0";2;"+";"Bibliographie et Experts"
"16";"rouilleJaune";"Prec";"10000";0.428571428571429;0.23030303030303;0.221505789310917;2.17766598458503e-08;"+";"+";"0";2;"+";"Bibliographie et Experts"
"17";"rouilleJaune";"Same";"200";2.57142857142857;1.14835164835165;0.479620197717557;1.85678098351581e-06;"+";"+";"0";2;"+";"Bibliographie et Experts"
"18";"rouilleJaune";"Same";"1000";1.42857142857143;1.16951566951567;0.111839045172643;-4.61868170459926e-07;"+";"+";"0";2;"+";"Bibliographie et Experts"
"19";"rouilleJaune";"Same";"5000";0.928571428571429;1.23168498168498;0.205114914539158;6.66077709362618e-08;"+";"+";"0";2;"+";"Bibliographie et Experts"
"20";"rouilleJaune";"Same";"10000";0.357142857142857;1.28687978687979;0.281695136170444;-1.88628529632826e-08;"+";"+";"0";2;"+";"Bibliographie et Experts"
"21";"phoma";"bois";"200";0;-0.404761904761905;0.41457196364234;2.37990038638347e-06;"0";"-";"0";2;"0";"Bibliographie et Statistiques"
"22";"phoma";"bois";"1000";0;-0.19047619047619;0.126840368742692;1.93528276010127e-07;"0";"-";"0";2;"0";"Bibliographie et Statistiques"
"23";"phoma";"bois";"5000";0;0;0.576855188727482;-5.53667536574109e-09;"0";"0";"0";3;"0";"Toutes"
"24";"phoma";"bois";"10000";0;0;0.322438563632227;2.40601359846647e-09;"0";"0";"0";3;"0";"Toutes"
"25";"phoma";"haies";"200";0;-0.607142857142857;0.649816091186541;1.18209231579446e-05;"0";"-";"0";2;"0";"Bibliographie et Statistiques"
"26";"phoma";"haies";"1000";0;-0.357142857142857;0.421456755977766;1.63430858117312e-06;"0";"-";"0";2;"0";"Bibliographie et Statistiques"
"27";"phoma";"haies";"5000";0;0;0.241341193080439;2.62467240747859e-07;"0";"0";"0";3;"0";"Toutes"
"28";"phoma";"haies";"10000";0;0;0.679197709841574;-2.28474361347438e-08;"0";"0";"0";3;"0";"Toutes"
"29";"phoma";"prairies";"200";0;0;0.814592227489706;-9.02540619404691e-07;"0";"0";"0";3;"0";"Toutes"
"30";"phoma";"prairies";"1000";0;0;0.91012781147192;2.83043485022885e-08;"0";"0";"0";3;"0";"Toutes"
"31";"phoma";"prairies";"5000";0;0;0.213873543134171;2.91277688415948e-08;"0";"0";"0";3;"0";"Toutes"
"32";"phoma";"prairies";"10000";0;0;0.00516214143147478;-1.53215366079958e-08;"0";"0";"-";2;"0";"Bibliographie et Experts"
"33";"phoma";"Prec";"200";1.14285714285714;2.47802197802198;0.125759512702229;-4.31936756268862e-06;"+";"+";"0";2;"+";"Bibliographie et Experts"
"34";"phoma";"Prec";"1000";1.78571428571429;1.47985347985348;0.92418927782595;-2.39030008397699e-08;"+";"+";"0";2;"+";"Bibliographie et Experts"
"35";"phoma";"Prec";"5000";0.642857142857143;0.938888888888889;0.477740252594233;-3.01516473723277e-08;"+";"+";"0";2;"+";"Bibliographie et Experts"
"36";"phoma";"Prec";"10000";0.285714285714286;0.791666666666667;0.731041886423168;-5.02697682843808e-09;"+";"+";"0";2;"+";"Bibliographie et Experts"
"37";"phoma";"Same";"200";1.35714285714286;0.0833333333333333;0.271849735859974;1.69870978225278e-06;"+";"+";"0";2;"+";"Bibliographie et Experts"
"38";"phoma";"Same";"1000";0.642857142857143;0;0.281371932177378;2.43972972844289e-07;"+";"0";"0";2;"0";"Statistiques et Experts"
"39";"phoma";"Same";"5000";0.0909090909090909;0;0.421190726018469;-3.30405065603715e-08;"+";"0";"0";2;"0";"Statistiques et Experts"
"40";"phoma";"Same";"10000";0;0;0.137871891317284;2.16508105520974e-08;"0";"0";"0";3;"0";"Toutes"
"41";"septoriose";"bois";"200";0;-0.0606060606060606;0.00213023257596958;-8.08544457096545e-06;"0";"-";"-";2;"-";"Statistiques et Experts"
"42";"septoriose";"bois";"1000";0;0;0.373393231450846;8.99980200246749e-08;"0";"0";"0";3;"0";"Toutes"
"43";"septoriose";"bois";"5000";0;0;0.328440924217031;7.17006119743178e-09;"0";"0";"0";3;"0";"Toutes"
"44";"septoriose";"bois";"10000";0;0;0.767809215720723;-5.27015361017668e-10;"0";"0";"0";3;"0";"Toutes"
"45";"septoriose";"haies";"200";0;-0.0303030303030303;0.259571465299014;-1.97396078556266e-05;"0";"-";"0";2;"0";"Bibliographie et Statistiques"
"46";"septoriose";"haies";"1000";0;0;0.393292188285739;1.1212307207466e-06;"0";"0";"0";3;"0";"Toutes"
"47";"septoriose";"haies";"5000";0;0;3.40569989772235e-05;-5.57619073699274e-07;"0";"0";"-";2;"0";"Bibliographie et Experts"
"48";"septoriose";"haies";"10000";0;0;1.27833363593855e-06;1.54611880578336e-07;"0";"0";"+";2;"0";"Bibliographie et Experts"
"49";"septoriose";"prairies";"200";1.42857142857143;0;0.967757657814528;8.06176773366111e-08;"+";"0";"0";2;"0";"Statistiques et Experts"
"50";"septoriose";"prairies";"1000";1;0;0.0459527426030994;2.8042927025769e-07;"+";"0";"+";2;"+";"Bibliographie et Statistiques"
"51";"septoriose";"prairies";"5000";0.285714285714286;0;0.0024311231427769;-3.95233862433521e-08;"+";"0";"-";0;NA;"Aucune"
"52";"septoriose";"prairies";"10000";0;0;0.0296675983095048;6.44701049168945e-09;"0";"0";"+";2;"0";"Bibliographie et Experts"
"53";"septoriose";"Prec";"200";1.57142857142857;1.5812324929972;0.652804953302759;-4.51457842596859e-07;"+";"+";"0";2;"+";"Bibliographie et Experts"
"54";"septoriose";"Prec";"1000";0.571428571428571;1.30467571644042;0.0681214898897416;1.84847598185686e-07;"+";"+";"0";2;"+";"Bibliographie et Experts"
"55";"septoriose";"Prec";"5000";0.230769230769231;0.488529014844804;0.128780408021981;3.07275751462078e-08;"+";"+";"0";2;"+";"Bibliographie et Experts"
"56";"septoriose";"Prec";"10000";0;0.406432748538012;0.000804367452310894;-2.15825080561727e-08;"0";"+";"-";0;NA;"Aucune"
"57";"septoriose";"Same";"200";1.64285714285714;1.01163542340013;0.0147030986500233;2.29919822017753e-06;"+";"+";"+";3;"+";"Toutes"
"58";"septoriose";"Same";"1000";0.928571428571429;0.843137254901961;0.0128843531657114;-2.65168183090208e-07;"+";"+";"-";2;"+";"Bibliographie et Experts"
"59";"septoriose";"Same";"5000";0.166666666666667;0.586666666666667;0.637212546928046;-9.40039778443248e-09;"+";"+";"0";2;"+";"Bibliographie et Experts"
"60";"septoriose";"Same";"10000";0;0.55952380952381;0.0511707203835702;1.24374188676772e-08;"0";"+";"0";2;"0";"Bibliographie et Statistiques"
